{
  "is_token_endpoint_ip_header_trusted": false,
  "name": "auth0configascode",
  "callbacks": [
    "https://localhost:3000/callback"
  ],
  "is_first_party": true,
  "oidc_conformant": true,
  "sso_disabled": false,
  "cross_origin_auth": false,
  "allowed_clients": [],
  "native_social_login": {
    "apple": {
      "enabled": false
    },
    "facebook": {
      "enabled": false
    }
  },
  "jwt_configuration": {
    "alg": "RS256",
    "lifetime_in_seconds": 36000,
    "secret_encoded": false
  },
  "client_aliases": [],
  "token_endpoint_auth_method": "client_secret_post",
  "grant_types": [
    "authorization_code",
    "implicit",
    "refresh_token",
    "client_credentials"
  ],
  "custom_login_page_on": true
}